<?xml version="1.0" encoding="UTF-8" standalone="no"?>
<svg
   xmlns:dc="http://purl.org/dc/elements/1.1/"
   xmlns:cc="http://creativecommons.org/ns#"
   xmlns:rdf="http://www.w3.org/1999/02/22-rdf-syntax-ns#"
   xmlns:svg="http://www.w3.org/2000/svg"
   xmlns="http://www.w3.org/2000/svg"
   xmlns:sodipodi="http://sodipodi.sourceforge.net/DTD/sodipodi-0.dtd"
   xmlns:inkscape="http://www.inkscape.org/namespaces/inkscape"
   width="100px"
   height="100px"
   viewBox="0 0 100 100"
   preserveAspectRatio="xMidYMid"
   class="uil-ring-alt"
   id="svg2"
   version="1.1"
   inkscape:version="0.91 r13725"
   sodipodi:docname="ring-alt-udec.svg">
  <metadata
     id="metadata14">
    <rdf:RDF>
      <cc:Work
         rdf:about="">
        <dc:format>image/svg+xml</dc:format>
        <dc:type
           rdf:resource="http://purl.org/dc/dcmitype/StillImage" />
        <dc:title></dc:title>
      </cc:Work>
    </rdf:RDF>
  </metadata>
  <defs
     id="defs12" />
  <sodipodi:namedview
     pagecolor="#ffffff"
     bordercolor="#666666"
     borderopacity="1"
     objecttolerance="10"
     gridtolerance="10"
     guidetolerance="10"
     inkscape:pageopacity="0"
     inkscape:pageshadow="2"
     inkscape:window-width="1366"
     inkscape:window-height="705"
     id="namedview10"
     showgrid="false"
     inkscape:zoom="4.6861896"
     inkscape:cx="63.062512"
     inkscape:cy="62.134485"
     inkscape:window-x="1016"
     inkscape:window-y="-8"
     inkscape:window-maximized="1"
     inkscape:current-layer="svg2" />
  <g
     id="g4158">
    <rect
       id="rect4"
       class="bk"
       fill="none"
       height="100"
       width="100"
       y="0"
       x="0" />
    <circle
       id="circle6"
       stroke-linecap="round"
       stroke-width="10"
       fill="none"
       stroke="rgba(68.62745098039215%,68.62745098039215%,71.76470588235294%,0.16)"
       r="40"
       cy="50"
       cx="50" />
    <circle
       id="circle8"
       stroke-linecap="round"
       stroke-width="6"
       fill="none"
       stroke="#145e56"
       r="40"
       cy="50"
       cx="50">
      <animate
         to="502"
         from="0"
         repeatCount="indefinite"
         dur="1.5s"
         attributeName="stroke-dashoffset" />
      <animate
         values="150.6 100.4;1 250;150.6 100.4"
         repeatCount="indefinite"
         dur="1.5s"
         attributeName="stroke-dasharray" />
    </circle>
  </g>
  <path
     style="opacity:0.98000004;fill:none;fill-opacity:1;fill-rule:evenodd;stroke:#0e3d38;stroke-width:0.94192219;stroke-linecap:butt;stroke-linejoin:miter;stroke-miterlimit:4;stroke-dasharray:none;stroke-opacity:0.99607843"
     d="m 27.482665,64.15962 7.939239,-0.108029 -0.211713,7.886909 7.304099,-3.241187 2.858126,7.022582 5.186972,-5.942197 5.92796,5.618078 2.011277,-7.454761 7.621667,2.809039 -1.270277,-7.994938 8.150953,-0.432157 -4.340118,-6.91455 7.3041,-3.565315 -6.563109,-4.537671 4.869403,-6.158267 -7.833379,-1.620597 2.011274,-7.34671 -7.515818,1.512562 -1.376132,-7.778868 -6.351391,4.969832 -4.551828,-6.590428 -3.810837,7.022585 -6.98653,-4.321591 -0.423426,7.994944 -8.045095,-1.296474 2.858127,7.670822 -7.727526,2.160798 5.398682,5.510031 -5.927965,5.29395 7.409956,2.917077 z"
     id="path7112"
     inkscape:connector-curvature="0" />
  <ellipse
     style="opacity:1;fill:none;fill-opacity:1;fill-rule:nonzero;stroke:#0e3d38;stroke-width:0.97440225;stroke-linejoin:round;stroke-miterlimit:4;stroke-dasharray:none;stroke-opacity:1"
     id="path7114"
     cx="49.827232"
     cy="50.938835"
     rx="16.887272"
     ry="17.122551" />
  <path
     style="opacity:1;fill:#0e3d38;fill-opacity:1;stroke:none;stroke-width:0.16758339;stroke-miterlimit:4;stroke-dasharray:none;stroke-opacity:1"
     d="m 43.161955,40.783736 c -0.255646,-0.0029 -0.344185,0.03652 -0.457252,0.151926 -0.154252,0.157431 -0.168505,0.253643 -0.120483,0.81386 0.33059,3.856583 0.491205,6.668432 0.491895,8.617671 l 5.19e-4,1.649969 -0.433503,1.02559 c -0.911376,2.155716 -0.896786,3.162822 0.05038,3.481858 0.406113,0.136796 0.827421,0.06321 1.826332,-0.318643 0.958993,-0.366593 1.157636,-0.384187 1.220323,-0.108486 0.139689,0.614357 0.579529,3.490058 0.671489,4.390464 0.0653,0.639244 0.154195,1.097976 0.227292,1.172583 0.155815,0.159032 0.581803,0.157649 0.71188,-0.0023 0.05584,-0.06862 0.1416,-0.378483 0.19049,-0.688272 L 47.23055,58.650629 c -0.02358,-0.0676 -0.142831,-0.744853 -0.265019,-1.505176 -0.122188,-0.760316 -0.287757,-1.535862 -0.367911,-1.723194 -0.293478,-0.685869 -0.984258,-0.772954 -2.220465,-0.279926 -0.435704,0.173761 -0.906108,0.339312 -1.045376,0.367739 -0.508984,0.1039 -0.441487,-0.369581 0.311073,-2.181589 l 0.481621,-1.159568 0,-1.458388 c 5.19e-4,-1.53647 -0.09771,-3.482864 -0.337701,-6.704881 -0.07974,-1.070693 -0.124898,-1.979547 -0.100334,-2.019702 0.0174,-0.380059 -0.113946,-0.802319 -0.03485,-1.178351 -0.05701,-0.0016 -0.114072,-0.0041 -0.171158,-0.0081 -0.129435,-0.0091 -0.23326,-0.01478 -0.318473,-0.01572 z"
     id="path7197"
     inkscape:connector-curvature="0" />
  <path
     id="path7396"
     d="m 47.142549,39.350115 c -0.149058,-0.0052 -0.31871,0.111098 -0.590272,0.360295 -0.843716,0.774217 -1.953393,1.167739 -3.071439,1.089066 0.114334,0.515972 0.06079,1.06535 0.205791,1.186419 0.02457,-0.04015 0.359258,-0.121599 0.743755,-0.180881 0.384491,-0.05928 0.949488,-0.203868 1.255592,-0.321368 0.306105,-0.1175 0.586245,-0.213511 0.622446,-0.213511 0.0362,0 0.09026,0.150432 0.120178,0.334379 0.150747,0.926939 1.010163,2.071388 1.829105,2.435915 1.007269,0.448361 2.570786,0.300762 3.99355,-0.377081 l 0.742829,-0.353786 0.289579,0.339518 c 0.459937,0.53927 1.064599,2.196169 1.244139,3.153087 0.26051,-0.112894 0.647802,-0.155329 0.952183,-0.236633 -0.413738,-2.159379 -1.527619,-4.314403 -2.502762,-4.314403 -0.156135,0 -0.528191,0.136156 -0.831646,0.304478 -1.257209,0.697347 -2.695329,0.90583 -3.501555,0.507494 C 48.172024,42.8299 47.839213,42.460618 47.594647,41.898813 47.432689,41.52676 47.428953,41.447337 47.53513,40.62855 47.640117,39.819007 47.636949,39.742061 47.49175,39.578307 47.362371,39.4324 47.258794,39.354506 47.142949,39.350108 l -5.2e-4,0 z"
     style="opacity:1;fill:#0e3d38;fill-opacity:1"
     inkscape:connector-curvature="0"
     sodipodi:nodetypes="csccssscscccccssscccccc" />
  <path
     style="opacity:1;fill:#0e3d38;fill-opacity:1;stroke:none;stroke-opacity:1"
     d="m 55.459617,46.481183 c -0.356144,0.114499 -0.628178,0.169712 -0.951101,0.322115 0.0098,0.09014 0.0153,0.174733 0.01543,0.2516 9.74e-4,0.652155 0.156593,1.867345 0.306339,2.393106 0.187455,0.658108 0.633092,1.145985 1.210051,1.324713 0.267633,0.0829 0.969833,0.160643 1.738029,0.192425 l 1.288897,0.0533 0.01705,1.368885 c 0.0094,0.752879 0.01923,1.499355 0.02189,1.658777 l 0.0047,0.289891 -1.135928,-0.02842 c -1.162566,-0.02894 -2.031824,-0.175467 -2.497718,-0.421361 -0.144351,-0.07618 -0.516261,-0.358271 -0.826508,-0.626891 -0.310252,-0.268607 -0.654687,-0.52352 -0.765341,-0.566459 -0.563685,-0.218734 -1.037754,0.221569 -1.445766,1.34297 -0.448153,1.231661 -0.507942,1.31366 -1.149301,1.572851 -0.690832,0.279179 -1.253765,0.611054 -2.031516,1.197547 -0.324157,0.244516 -0.903466,0.787167 -1.287356,1.205949 -0.284478,0.310321 -0.636093,0.641134 -0.758812,0.729951 -0.343492,0.928767 -0.469582,1.685235 -0.678735,2.598432 0.03579,0.171267 0.07199,0.28635 0.10495,0.32 0.155826,0.159038 0.581808,0.157652 0.711891,-0.0023 0.05584,-0.06862 0.1416,-0.37848 0.190491,-0.688272 0.124488,-0.789016 0.534606,-1.519483 1.328883,-2.367404 0.950968,-1.015194 1.987865,-1.72962 3.160468,-2.177396 0.589549,-0.225126 0.79341,-0.499901 1.236568,-1.666225 0.172537,-0.454055 0.344805,-0.845067 0.382823,-0.86905 0.03801,-0.02397 0.25998,0.118338 0.49323,0.316337 0.979998,0.831889 1.887524,1.090882 4.201924,1.199118 l 1.331147,0.06222 0.251854,-0.25695 0.251756,-0.257047 -0.03803,-2.137215 c -0.02095,-1.175408 -0.07829,-2.244558 -0.127367,-2.376008 -0.155144,-0.415527 -0.527158,-0.518963 -1.877527,-0.521341 -2.275697,-0.004 -2.417869,-0.139034 -2.563922,-2.436652 -0.02147,-0.337699 -0.06008,-0.672955 -0.113492,-1.00114 z"
     id="path7339"
     inkscape:connector-curvature="0"
     sodipodi:nodetypes="cccssccccccccscsccccsccssccscccccccscc" />
</svg>
